/Users/imrankabir/IdeaProjects/ESPN/HeaderMOD/src/main/java/headerPageObject/HackerRankInterview.java
/Users/imrankabir/IdeaProjects/ESPN/HeaderMOD/src/main/java/headerPageObject/Prac.java
/Users/imrankabir/IdeaProjects/ESPN/HeaderMOD/src/main/java/headerPageObject/InterviewPrac.java
/Users/imrankabir/IdeaProjects/ESPN/HeaderMOD/src/main/java/headerPageObject/Search.java
